<?xml version="1.0" encoding="UTF-8" standalone="no"?>
<!-- Created with Inkscape (http://www.inkscape.org/) -->

<svg
   xmlns:dc="http://purl.org/dc/elements/1.1/"
   xmlns:cc="http://creativecommons.org/ns#"
   xmlns:rdf="http://www.w3.org/1999/02/22-rdf-syntax-ns#"
   xmlns:svg="http://www.w3.org/2000/svg"
   xmlns="http://www.w3.org/2000/svg"
   xmlns:sodipodi="http://sodipodi.sourceforge.net/DTD/sodipodi-0.dtd"
   xmlns:inkscape="http://www.inkscape.org/namespaces/inkscape"
   width="800"
   height="600"
   id="svg2"
   version="1.1"
   inkscape:version="0.48.4 r9939"
   sodipodi:docname="screen-loading.svg">
  <defs
     id="defs4" />
  <sodipodi:namedview
     id="base"
     pagecolor="#ffffff"
     bordercolor="#666666"
     borderopacity="1.0"
     inkscape:pageopacity="0.0"
     inkscape:pageshadow="2"
     inkscape:zoom="0.7"
     inkscape:cx="252.43244"
     inkscape:cy="180.38584"
     inkscape:document-units="px"
     inkscape:current-layer="g3114-8"
     showgrid="false"
     inkscape:window-width="1280"
     inkscape:window-height="962"
     inkscape:window-x="-8"
     inkscape:window-y="-8"
     inkscape:window-maximized="1" />
  <metadata
     id="metadata7">
    <rdf:RDF>
      <cc:Work
         rdf:about="">
        <dc:format>image/svg+xml</dc:format>
        <dc:type
           rdf:resource="http://purl.org/dc/dcmitype/StillImage" />
        <dc:title></dc:title>
      </cc:Work>
    </rdf:RDF>
  </metadata>
  <g
     inkscape:label="Layer 1"
     inkscape:groupmode="layer"
     id="layer1"
     transform="translate(0,-452.36218)">
    <g
       id="g3777"
       transform="matrix(0.92105264,0,0,0.89678737,-55.304509,-12.438723)">
      <g
         id="g3114-8"
         transform="translate(-142.69386,146.55491)">
        <text
           xml:space="preserve"
           style="font-size:208.7288208px;font-style:normal;font-variant:normal;font-weight:normal;font-stretch:normal;text-align:center;line-height:64.99999762%;letter-spacing:0px;word-spacing:0px;text-anchor:middle;fill:#000000;fill-opacity:1;stroke:none;font-family:Iceland;-inkscape-font-specification:Iceland"
           x="620.60742"
           y="534.69263"
           id="text3265"
           sodipodi:linespacing="64.999998%"
           transform="scale(1.0080857,0.99197915)"><tspan
             sodipodi:role="line"
             x="620.60742"
             y="534.69263"
             id="tspan3277">Frontier</tspan><tspan
             sodipodi:role="line"
             x="620.60742"
             y="670.36633"
             id="tspan3281">Lander</tspan></text>
        <rect
           style="fill:#e6e6e6;fill-opacity:1;stroke:#a31027;stroke-width:3.4000001;stroke-linecap:round;stroke-linejoin:round;stroke-miterlimit:4;stroke-opacity:1;stroke-dasharray:none;stroke-dashoffset:0"
           id="rect4577"
           width="507.14285"
           height="14.285714"
           x="180"
           y="414.28571"
           transform="matrix(1.0857143,0,0,1.1150915,202.73875,371.74064)"
           ry="0.1207517" />
        <rect
           style="fill:#b3b3b3;fill-opacity:1;stroke:#a31027;stroke-width:3.40000010000000020;stroke-linecap:round;stroke-linejoin:round;stroke-miterlimit:4;stroke-opacity:1;stroke-dasharray:none;stroke-dashoffset:0"
           id="rect4579"
           width="358.57144"
           height="12.857142"
           x="177.14285"
           y="415.71429"
           transform="matrix(1.0857143,0,0,1.1150915,202.73875,371.74064)"
           ry="0.1346492" />
        <text
           xml:space="preserve"
           style="font-size:39.61097336px;font-style:normal;font-variant:normal;font-weight:normal;font-stretch:normal;line-height:125%;letter-spacing:0px;word-spacing:0px;fill:#000000;fill-opacity:1;stroke:none;font-family:Iceland;-inkscape-font-specification:Iceland"
           x="595.28558"
           y="803.78943"
           id="text4581"
           sodipodi:linespacing="125%"
           transform="scale(0.98673953,1.0134387)"><tspan
             sodipodi:role="line"
             id="tspan4583"
             x="595.28558"
             y="803.78943">Loading...</tspan></text>
      </g>
    </g>
    <text
       xml:space="preserve"
       style="font-size:36px;font-style:normal;font-variant:normal;font-weight:normal;font-stretch:normal;line-height:125%;letter-spacing:0px;word-spacing:0px;fill:#000000;fill-opacity:1;stroke:none;font-family:Iceland;-inkscape-font-specification:Iceland"
       x="232.85715"
       y="-50"
       id="text3930"
       sodipodi:linespacing="125%"
       transform="translate(0,452.36218)"><tspan
         sodipodi:role="line"
         id="tspan3932" /></text>
  </g>
</svg>
